Case Study: Cyclistic
…
average_time $avgtime <- round(average_time $avgtime, digits = 0)

average_time 

## # A tibble: 2 × 2
##   user   avgtime
##   <chr>  <drtn> 
## 1 casual 24 mins
## 2 member 12 mins

Cyclistic <- Cyclistic%>%
    mutate(hour = strftime(Cyclistic$ended_at, "%H"))
Cyclistic

## # A tibble: 4,369,360 × 22
##    ride_id bike  started_at          ended_at            start…¹ start…² end_s…³
##    <chr>   <chr> <dttm>              <dttm>              <chr>   <chr>   <chr>  
##  1 C2F7DD… elec… 2022-01-13 11:59:47 2022-01-13 12:02:44 Glenwo… 525     Clark …
##  2 A6CF89… elec… 2022-01-10 08:41:56 2022-01-10 08:46:17 Glenwo… 525     Clark …
##  3 BD0F91… clas… 2022-01-25 04:53:40 2022-01-25 04:58:01 Sheffi… TA1306… Greenv…
##  4 CBB80E… clas… 2022-01-04 00:18:04 2022-01-04 00:33:00 Clark … KA1504… Paulin…
##  5 DDC963… clas… 2022-01-20 01:31:10 2022-01-20 01:37:12 Michig… TA1309… State …
##  6 A39C6F… clas… 2022-01-11 18:48:09 2022-01-11 18:51:31 Wood S… 637     Honore…
##  7 BDC4AB… clas… 2022-01-30 18:32:52 2022-01-30 18:49:26 Oakley… KA1504… Broadw…
##  8 81751A… clas… 2022-01-22 12:20:02 2022-01-22 12:32:06 Sheffi… TA1306… Damen …
##  9 154222… elec… 2022-01-17 07:34:41 2022-01-17 08:00:08 Racine… 13304   Clinto…
## 10 72DC25… clas… 2022-01-28 15:27:53 2022-01-28 15:35:16 LaSall… TA1309… Clinto…
## # … with 4,369,350 more rows, 15 more variables: end_station_id <chr>,
## #   start_lat <dbl>, start_lng <dbl>, end_lat <dbl>, end_lng <dbl>, user <chr>,
## #   date <date>, day <chr>, year <chr>, day_of_week <ord>, month_name <ord>,
## #   ride_length <drtn>, ride_distance <dbl>, ride_speed <dbl>, hour <chr>, and
## #   abbreviated variable names ¹​start_station_name, ²​start_station_id,
## #   ³​end_station_name

# Rides by user in hour
hours <- Cyclistic%>%
    group_by(user, hour) %>% 
    summarise(number_of_rides = n(),.groups = 'drop') %>% 
      arrange(hour)

hours

## # A tibble: 48 × 3
##    user   hour  number_of_rides
##    <chr>  <chr>           <int>
##  1 casual 00              75570
##  2 member 00              90529
##  3 casual 01              68313
##  4 member 01              68345
##  5 casual 02              52228
##  6 member 02              44868
##  7 casual 03              37140
##  8 member 03              27867
##  9 casual 04              23654
## 10 member 04              16928
## # … with 38 more rows
…
